id,name,model_id:id,group_id:id,perm_read,perm_write,perm_create,perm_unlink
product.access_product_template_clicshopping,product.template clicshopping,account.model_product_template,base.group_sale_manager,1,1,1,1
res_partner.access_res_partner_clicshopping,res.partner clicshopping,account.model_res_partner,base.group_sale_manager,1,1,1,1
access_clicshopping_manufacturer,clicshopping.manufacturer manufacturer,model_clicshopping_manufacturer,base.group_sale_manager,1,1,1,1
access_product_category,product.category clicshopping,model_product_category,base.group_sale_manager,1,1,1,1
access_clicshopping_sale_order,sale.order clicshopping,model_sale_order,base.group_sale_salesman,1,1,1,1
account.access_account_invoice_uinvoice_clicshopping,account.invoice clicshopping,account.model_account_invoice,account.group_account_invoice,1,1,1,1
access_clicshopping_customers_group,clicshopping.customers.group clicshopping_customers_group,model_clicshopping_customers_group,base.group_sale_manager,1,1,1,1
access_clicshopping_products_group,clicshopping.clicshopping_products_group,model_clicshopping_products_group,base.group_sale_manager,1,1,1,1


